what,kind,bundleId,bundleVersion,description,time
activated,perspective,org.eclipse.jdt.ui,,"org.eclipse.jdt.ui.JavaPerspective",1622745424652
started,bundle,org.eclipse.osgi,3.6.1.R36x_v20100806,"org.eclipse.osgi",1622745424668
started,bundle,org.eclipse.equinox.simpleconfigurator,1.0.200.v20100503,"org.eclipse.equinox.simpleconfigurator",1622745424668
started,bundle,com.ibm.icu,4.2.1.v20100412,"com.ibm.icu",1622745424668
started,bundle,org.eclipse.compare.core,3.5.100.I20100526-0800,"org.eclipse.compare.core",1622745424668
started,bundle,org.eclipse.core.contenttype,3.4.100.v20100505-1235,"org.eclipse.core.contenttype",1622745424668
started,bundle,org.eclipse.core.databinding.observable,1.3.0.I20100601-0800,"org.eclipse.core.databinding.observable",1622745424668
started,bundle,org.eclipse.core.expressions,3.4.200.v20100505,"org.eclipse.core.expressions",1622745424668
started,bundle,org.eclipse.core.filebuffers,3.5.100.v20100520-0800,"org.eclipse.core.filebuffers",1622745424683
started,bundle,org.eclipse.core.filesystem,1.3.1.R36x_v20100727-0745,"org.eclipse.core.filesystem",1622745424683
started,bundle,org.eclipse.core.jobs,3.5.1.R36x_v20100824,"org.eclipse.core.jobs",1622745424746
started,bundle,org.eclipse.core.net,1.2.100.I20100511-0800,"org.eclipse.core.net",1622745424746
started,bundle,org.eclipse.core.resources,3.6.0.R36x_v20100825-0600,"org.eclipse.core.resources",1622745424761
started,bundle,org.eclipse.core.runtime,3.6.0.v20100505,"org.eclipse.core.runtime",1622745424777
started,bundle,org.eclipse.core.runtime.compatibility,3.2.100.v20100505,"org.eclipse.core.runtime.compatibility",1622745424855
started,bundle,org.eclipse.core.runtime.compatibility.auth,3.2.200.v20100517,"org.eclipse.core.runtime.compatibility.auth",1622745424855
started,bundle,org.eclipse.core.variables,3.2.400.v20100505,"org.eclipse.core.variables",1622745424855
started,bundle,org.eclipse.debug.core,3.6.0.v20100519,"org.eclipse.debug.core",1622745424855
started,bundle,org.eclipse.epp.usagedata.gathering,1.3.0.R201005261100,"org.eclipse.epp.usagedata.gathering",1622745424855
started,bundle,org.eclipse.equinox.app,1.3.1.R36x_v20100803,"org.eclipse.equinox.app",1622745424871
started,bundle,org.eclipse.equinox.common,3.6.0.v20100503,"org.eclipse.equinox.common",1622745424871
started,bundle,org.eclipse.equinox.ds,1.2.1.R36x_v20100803,"org.eclipse.equinox.ds",1622745424871
started,bundle,org.eclipse.equinox.event,1.2.0.v20100503,"org.eclipse.equinox.event",1622745424886
started,bundle,org.eclipse.equinox.p2.core,2.0.2.R36x_v20100804,"org.eclipse.equinox.p2.core",1622745424886
started,bundle,org.eclipse.equinox.p2.directorywatcher,1.0.202.R36x_v20100727,"org.eclipse.equinox.p2.directorywatcher",1622745424886
started,bundle,org.eclipse.equinox.p2.reconciler.dropins,1.1.0.v20100525,"org.eclipse.equinox.p2.reconciler.dropins",1622745424886
started,bundle,org.eclipse.equinox.preferences,3.3.0.v20100503,"org.eclipse.equinox.preferences",1622745424886
started,bundle,org.eclipse.equinox.registry,3.5.0.v20100503,"org.eclipse.equinox.registry",1622745424949
started,bundle,org.eclipse.equinox.security,1.0.200.v20100503,"org.eclipse.equinox.security",1622745424965
started,bundle,org.eclipse.equinox.util,1.0.200.v20100503,"org.eclipse.equinox.util",1622745424965
started,bundle,org.eclipse.help,3.5.0.v20100524,"org.eclipse.help",1622745425115
started,bundle,org.eclipse.jdt.core,3.6.1.v_A68_R36x,"org.eclipse.jdt.core",1622745425115
started,bundle,org.eclipse.jdt.core.manipulation,1.3.0.v20100520-0800,"org.eclipse.jdt.core.manipulation",1622745425115
started,bundle,org.eclipse.jdt.launching,3.5.100.v20100526,"org.eclipse.jdt.launching",1622745425115
started,bundle,org.eclipse.jdt.ui,3.6.1.r361_v20100825-0800,"org.eclipse.jdt.ui",1622745425115
started,bundle,org.eclipse.jface,3.6.1.M20100825-0800,"org.eclipse.jface",1622745425193
started,bundle,org.eclipse.ltk.core.refactoring,3.5.100.v20100526-0800,"org.eclipse.ltk.core.refactoring",1622745425193
started,bundle,org.eclipse.ltk.ui.refactoring,3.5.0.v20100526-0800,"org.eclipse.ltk.ui.refactoring",1622745425209
started,bundle,org.eclipse.mylyn.bugzilla.core,3.4.2.v20100902-0100-e3x,"org.eclipse.mylyn.bugzilla.core",1622745425225
started,bundle,org.eclipse.mylyn.bugzilla.ui,3.4.2.v20100909-0100-e3x,"org.eclipse.mylyn.bugzilla.ui",1622745425225
started,bundle,org.eclipse.mylyn.commons.net,3.4.1.v20100625-2100-e3x,"org.eclipse.mylyn.commons.net",1622745425225
started,bundle,org.eclipse.mylyn.commons.ui,3.4.0.v20100608-0100-e3x,"org.eclipse.mylyn.commons.ui",1622745425225
started,bundle,org.eclipse.mylyn.context.core,3.4.1.v20100909-0100-e3x,"org.eclipse.mylyn.context.core",1622745425225
started,bundle,org.eclipse.mylyn.context.ui,3.4.1.v20100909-0100-e3x,"org.eclipse.mylyn.context.ui",1622745425225
started,bundle,org.eclipse.mylyn.monitor.ui,3.4.0.v20100608-0100-e3x,"org.eclipse.mylyn.monitor.ui",1622745425240
started,bundle,org.eclipse.mylyn.tasks.ui,3.4.2.v20100902-0100-e3x,"org.eclipse.mylyn.tasks.ui",1622745425256
started,bundle,org.eclipse.search,3.6.0.v20100520-0800,"org.eclipse.search",1622745425287
started,bundle,org.eclipse.team.core,3.5.100.R36x_v20100825-0800,"org.eclipse.team.core",1622745425287
started,bundle,org.eclipse.team.ui,3.5.101.R36x_v20100825-0800,"org.eclipse.team.ui",1622745425396
started,bundle,org.eclipse.ui,3.6.1.M20100826-1330,"org.eclipse.ui",1622745425490
started,bundle,org.eclipse.ui.editors,3.6.1.r361_v20100825-0800,"org.eclipse.ui.editors",1622745425490
started,bundle,org.eclipse.ui.forms,3.5.2.r36_v20100702,"org.eclipse.ui.forms",1622745425490
started,bundle,org.eclipse.ui.ide,3.6.1.M20100825-0800,"org.eclipse.ui.ide",1622745425537
started,bundle,org.eclipse.ui.net,1.2.100.I20100505-1245,"org.eclipse.ui.net",1622745425537
started,bundle,org.eclipse.ui.views,3.5.0.I20100527-0800,"org.eclipse.ui.views",1622745425537
started,bundle,org.eclipse.ui.workbench,3.6.1.M20100826-1330,"org.eclipse.ui.workbench",1622745425631
started,bundle,org.eclipse.ui.workbench.texteditor,3.6.1.r361_v20100714-0800,"org.eclipse.ui.workbench.texteditor",1622745425678
os,sysinfo,,,"win32",1622745425693
arch,sysinfo,,,"x86_64",1622745425693
ws,sysinfo,,,"win32",1622745425693
locale,sysinfo,,,"es_AR",1622745425693
processors,sysinfo,,,"2",1622745425693
java.runtime.name,sysinfo,,,"Java(TM) SE Runtime Environment",1622745425693
java.runtime.version,sysinfo,,,"1.8.0_291-b10",1622745425693
java.specification.name,sysinfo,,,"Java Platform API Specification",1622745425693
java.specification.vendor,sysinfo,,,"Oracle Corporation",1622745425693
java.specification.version,sysinfo,,,"1.8",1622745425693
java.vendor,sysinfo,,,"Oracle Corporation",1622745425693
java.version,sysinfo,,,"1.8.0_291",1622745425693
java.vm.info,sysinfo,,,"mixed mode",1622745425693
java.vm.name,sysinfo,,,"Java HotSpot(TM) 64-Bit Server VM",1622745425693
java.vm.specification.name,sysinfo,,,"Java Virtual Machine Specification",1622745425693
java.vm.specification.vendor,sysinfo,,,"Oracle Corporation",1622745425693
java.vm.specification.version,sysinfo,,,"1.8",1622745425693
java.vm.vendor,sysinfo,,,"Oracle Corporation",1622745425693
java.vm.version,sysinfo,,,"25.291-b10",1622745425693
started,bundle,org.eclipse.jsch.core,1.1.200.I20100505-1245,"org.eclipse.jsch.core",1622745426462
started,bundle,org.eclipse.team.cvs.core,3.3.300.I20100526-0800,"org.eclipse.team.cvs.core",1622745426470
started,bundle,org.eclipse.ui.console,3.5.0.v20100526,"org.eclipse.ui.console",1622745426726
started,bundle,org.eclipse.equinox.p2.operations,2.0.0.v20100510,"org.eclipse.equinox.p2.operations",1622745426734
started,bundle,org.eclipse.equinox.p2.engine,2.0.0.v20100606,"org.eclipse.equinox.p2.engine",1622745426834
started,bundle,org.eclipse.epp.usagedata.ui,1.3.0.R201005261100,"org.eclipse.epp.usagedata.ui",1622745426850
started,bundle,org.eclipse.equinox.p2.metadata,2.0.0.v20100601,"org.eclipse.equinox.p2.metadata",1622745427074
started,bundle,org.eclipse.equinox.p2.repository,2.0.1.R36x_v20100823,"org.eclipse.equinox.p2.repository",1622745427162
started,bundle,org.eclipse.equinox.p2.metadata.repository,1.1.0.v20100513,"org.eclipse.equinox.p2.metadata.repository",1622745427266
started,bundle,org.eclipse.team.cvs.ui,3.3.301.R36x_v20100825-0800,"org.eclipse.team.cvs.ui",1622745427425
started,bundle,org.eclipse.equinox.p2.ui.sdk.scheduler,1.0.0.v20100507-1815,"org.eclipse.equinox.p2.ui.sdk.scheduler",1622745427456
started,bundle,org.eclipse.equinox.p2.updatechecker,1.1.101.R36x_v20100823,"org.eclipse.equinox.p2.updatechecker",1622745428503
started,bundle,org.eclipse.mylyn.team.ui,3.4.2.v20100909-0100-e3x,"org.eclipse.mylyn.team.ui",1622745428675
deactivated,workbench,org.eclipse.ui.workbench,3.6.1.M20100826-1330,"",1622745429349
started,bundle,org.eclipse.update.scheduler,3.2.300.v20100512,"org.eclipse.update.scheduler",1622745429458
started,bundle,org.eclipse.update.configurator,3.3.100.v20100512,"org.eclipse.update.configurator",1622745430221
started,bundle,org.eclipse.update.core,3.2.402.R36x_v20100629,"org.eclipse.update.core",1622745430397
activated,workbench,org.eclipse.ui.workbench,3.6.1.M20100826-1330,"",1622745431731
activated,view,org.eclipse.jdt.ui,3.6.1.r361_v20100825-0800,"org.eclipse.jdt.ui.PackageExplorer",1622745434622
opened,editor,org.eclipse.jdt.ui,3.6.1.r361_v20100825-0800,"org.eclipse.jdt.ui.CompilationUnitEditor",1622745443024
activated,editor,org.eclipse.jdt.ui,3.6.1.r361_v20100825-0800,"org.eclipse.jdt.ui.CompilationUnitEditor",1622745443509
started,bundle,org.eclipse.jdt.junit,3.6.1.r361_v20100825-0800,"org.eclipse.jdt.junit",1622745443962
activated,view,org.eclipse.jdt.ui,3.6.1.r361_v20100825-0800,"org.eclipse.jdt.ui.PackageExplorer",1622745462549
opened,editor,org.eclipse.jdt.ui,3.6.1.r361_v20100825-0800,"org.eclipse.jdt.ui.CompilationUnitEditor",1622745463173
activated,editor,org.eclipse.jdt.ui,3.6.1.r361_v20100825-0800,"org.eclipse.jdt.ui.CompilationUnitEditor",1622745463532
activated,view,org.eclipse.jdt.ui,3.6.1.r361_v20100825-0800,"org.eclipse.jdt.ui.PackageExplorer",1622745466762
activated,editor,org.eclipse.jdt.ui,3.6.1.r361_v20100825-0800,"org.eclipse.jdt.ui.CompilationUnitEditor",1622745467200
activated,view,org.eclipse.jdt.ui,3.6.1.r361_v20100825-0800,"org.eclipse.jdt.ui.PackageExplorer",1622745468761
activated,editor,org.eclipse.jdt.ui,3.6.1.r361_v20100825-0800,"org.eclipse.jdt.ui.CompilationUnitEditor",1622745468995
deactivated,workbench,org.eclipse.ui.workbench,3.6.1.M20100826-1330,"",1622745472649
activated,workbench,org.eclipse.ui.workbench,3.6.1.M20100826-1330,"",1622745485208
deactivated,workbench,org.eclipse.ui.workbench,3.6.1.M20100826-1330,"",1622745490007
activated,workbench,org.eclipse.ui.workbench,3.6.1.M20100826-1330,"",1622745529234
activated,view,org.eclipse.jdt.ui,3.6.1.r361_v20100825-0800,"org.eclipse.jdt.ui.PackageExplorer",1622745536013
started,bundle,org.eclipse.compare,3.5.100.I20100526-0800,"org.eclipse.compare",1622745537061
deactivated,workbench,org.eclipse.ui.workbench,3.6.1.M20100826-1330,"",1622745542003
activated,workbench,org.eclipse.ui.workbench,3.6.1.M20100826-1330,"",1622745555231
deactivated,workbench,org.eclipse.ui.workbench,3.6.1.M20100826-1330,"",1622745562874
closed,editor,org.eclipse.jdt.ui,3.6.1.r361_v20100825-0800,"org.eclipse.jdt.ui.CompilationUnitEditor",1622745566757
activated,workbench,org.eclipse.ui.workbench,3.6.1.M20100826-1330,"",1622745567301
executed,command,org.eclipse.ui,3.6.1.M20100826-1330,"org.eclipse.ui.edit.delete",1622745567341
deactivated,workbench,org.eclipse.ui.workbench,3.6.1.M20100826-1330,"",1622745569894
closed,editor,org.eclipse.jdt.ui,3.6.1.r361_v20100825-0800,"org.eclipse.jdt.ui.CompilationUnitEditor",1622745572844
activated,workbench,org.eclipse.ui.workbench,3.6.1.M20100826-1330,"",1622745573028
executed,command,org.eclipse.ui,3.6.1.M20100826-1330,"org.eclipse.ui.edit.delete",1622745573076
deactivated,workbench,org.eclipse.ui.workbench,3.6.1.M20100826-1330,"",1622745575356
opened,editor,org.eclipse.jdt.ui,3.6.1.r361_v20100825-0800,"org.eclipse.jdt.ui.CompilationUnitEditor",1622745577128
closed,editor,org.eclipse.jdt.ui,3.6.1.r361_v20100825-0800,"org.eclipse.jdt.ui.CompilationUnitEditor",1622745577592
activated,workbench,org.eclipse.ui.workbench,3.6.1.M20100826-1330,"",1622745577744
executed,command,org.eclipse.ui,3.6.1.M20100826-1330,"org.eclipse.ui.edit.delete",1622745577904
deactivated,workbench,org.eclipse.ui.workbench,3.6.1.M20100826-1330,"",1622745581832
activated,workbench,org.eclipse.ui.workbench,3.6.1.M20100826-1330,"",1622745590764
opened,editor,org.eclipse.jdt.ui,3.6.1.r361_v20100825-0800,"org.eclipse.jdt.ui.CompilationUnitEditor",1622745591244
activated,editor,org.eclipse.jdt.ui,3.6.1.r361_v20100825-0800,"org.eclipse.jdt.ui.CompilationUnitEditor",1622745591484
deactivated,workbench,org.eclipse.ui.workbench,3.6.1.M20100826-1330,"",1622745592340
activated,workbench,org.eclipse.ui.workbench,3.6.1.M20100826-1330,"",1622745610146
executed,command,org.eclipse.ui,3.6.1.M20100826-1330,"org.eclipse.ui.edit.paste",1622745616975
activated,view,org.eclipse.jdt.ui,3.6.1.r361_v20100825-0800,"org.eclipse.jdt.ui.PackageExplorer",1622745622095
deactivated,workbench,org.eclipse.ui.workbench,3.6.1.M20100826-1330,"",1622745624784
activated,workbench,org.eclipse.ui.workbench,3.6.1.M20100826-1330,"",1622745632162
opened,editor,org.eclipse.jdt.ui,3.6.1.r361_v20100825-0800,"org.eclipse.jdt.ui.CompilationUnitEditor",1622745632682
activated,editor,org.eclipse.jdt.ui,3.6.1.r361_v20100825-0800,"org.eclipse.jdt.ui.CompilationUnitEditor",1622745632938
deactivated,workbench,org.eclipse.ui.workbench,3.6.1.M20100826-1330,"",1622745634699
activated,workbench,org.eclipse.ui.workbench,3.6.1.M20100826-1330,"",1622745645199
executed,command,org.eclipse.ui,3.6.1.M20100826-1330,"org.eclipse.ui.edit.paste",1622745649085
activated,view,org.eclipse.jdt.ui,3.6.1.r361_v20100825-0800,"org.eclipse.jdt.ui.PackageExplorer",1622745651678
deactivated,workbench,org.eclipse.ui.workbench,3.6.1.M20100826-1330,"",1622745654358
activated,workbench,org.eclipse.ui.workbench,3.6.1.M20100826-1330,"",1622745663917
opened,editor,org.eclipse.jdt.ui,3.6.1.r361_v20100825-0800,"org.eclipse.jdt.ui.CompilationUnitEditor",1622745664381
activated,editor,org.eclipse.jdt.ui,3.6.1.r361_v20100825-0800,"org.eclipse.jdt.ui.CompilationUnitEditor",1622745664573
deactivated,workbench,org.eclipse.ui.workbench,3.6.1.M20100826-1330,"",1622745666141
activated,workbench,org.eclipse.ui.workbench,3.6.1.M20100826-1330,"",1622745677474
executed,command,org.eclipse.ui,3.6.1.M20100826-1330,"org.eclipse.ui.edit.paste",1622745681555
activated,view,org.eclipse.jdt.ui,3.6.1.r361_v20100825-0800,"org.eclipse.jdt.ui.PackageExplorer",1622745685509
deactivated,workbench,org.eclipse.ui.workbench,3.6.1.M20100826-1330,"",1622745688220
activated,workbench,org.eclipse.ui.workbench,3.6.1.M20100826-1330,"",1622745904543
activated,editor,org.eclipse.jdt.ui,3.6.1.r361_v20100825-0800,"org.eclipse.jdt.ui.CompilationUnitEditor",1622745908122
deactivated,workbench,org.eclipse.ui.workbench,3.6.1.M20100826-1330,"",1622745910040
activated,workbench,org.eclipse.ui.workbench,3.6.1.M20100826-1330,"",1622745913051
deactivated,workbench,org.eclipse.ui.workbench,3.6.1.M20100826-1330,"",1622745913587
activated,workbench,org.eclipse.ui.workbench,3.6.1.M20100826-1330,"",1622745917386
deactivated,workbench,org.eclipse.ui.workbench,3.6.1.M20100826-1330,"",1622745917417
activated,workbench,org.eclipse.ui.workbench,3.6.1.M20100826-1330,"",1622745961995
activated,view,org.eclipse.jdt.ui,3.6.1.r361_v20100825-0800,"org.eclipse.jdt.ui.PackageExplorer",1622745963550
activated,editor,org.eclipse.jdt.ui,3.6.1.r361_v20100825-0800,"org.eclipse.jdt.ui.CompilationUnitEditor",1622745965245
activated,view,org.eclipse.search,3.6.0.v20100520-0800,"org.eclipse.search.ui.views.SearchView",1622745975019
deactivated,workbench,org.eclipse.ui.workbench,3.6.1.M20100826-1330,"",1622745979530
activated,workbench,org.eclipse.ui.workbench,3.6.1.M20100826-1330,"",1622745981796
deactivated,workbench,org.eclipse.ui.workbench,3.6.1.M20100826-1330,"",1622745983719
activated,workbench,org.eclipse.ui.workbench,3.6.1.M20100826-1330,"",1622745985451
deactivated,workbench,org.eclipse.ui.workbench,3.6.1.M20100826-1330,"",1622745985852
activated,workbench,org.eclipse.ui.workbench,3.6.1.M20100826-1330,"",1622745991933
deactivated,workbench,org.eclipse.ui.workbench,3.6.1.M20100826-1330,"",1622745992488
activated,workbench,org.eclipse.ui.workbench,3.6.1.M20100826-1330,"",1622745994877
deactivated,workbench,org.eclipse.ui.workbench,3.6.1.M20100826-1330,"",1622745994949
activated,workbench,org.eclipse.ui.workbench,3.6.1.M20100826-1330,"",1622746005649
activated,view,org.eclipse.jdt.ui,3.6.1.r361_v20100825-0800,"org.eclipse.jdt.ui.PackageExplorer",1622746006793
activated,editor,org.eclipse.jdt.ui,3.6.1.r361_v20100825-0800,"org.eclipse.jdt.ui.CompilationUnitEditor",1622746007137
deactivated,workbench,org.eclipse.ui.workbench,3.6.1.M20100826-1330,"",1622746011796
